#value			#sigma
1.45000e+01		4.46346e-01
1.45000e+01		4.46346e-01
1.45000e+01		4.46346e-01
1.45000e+01		4.46346e-01
1.42000e+01		4.37580e-01
1.38000e+01		4.25906e-01
1.36000e+01		4.20076e-01
1.35000e+01		4.17163e-01
1.35000e+01		4.17163e-01
1.34000e+01		4.14251e-01
1.34000e+01		4.14251e-01
1.34000e+01		4.14251e-01
1.34000e+01		4.14251e-01
1.34000e+01		4.14251e-01
1.34000e+01		4.14251e-01
1.34000e+01		4.14251e-01
1.34000e+01		4.14251e-01
1.34000e+01		4.14251e-01
1.34000e+01		4.14251e-01
