#analogico  #sigma      #fs     #perc
13.5        0.25        500e-3  1
14.75       0.25        50e-3   1
7.25        0.25        5e-3    1
15.5        0.25        50e-6   1
1           0.25        50e-6   1
