#value			#sigma
1.16000e+00		3.62083e-02
1.19000e+00		3.70741e-02
1.48000e+00		4.55122e-02
1.67000e+00		5.10883e-02
2.01000e+00		6.11236e-02
2.56000e+00		7.74483e-02
4.65000e+00		1.39858e-01
1.02000e+00		3.21925e-02
7.40000e-01		2.43483e-02
6.10000e-01		2.08540e-02
4.20000e-01		1.60860e-02
1.07000e-01		3.36216e-03
4.66000e-02		1.40157e-03
