#freq       Vin     dVin    Vout    dVout
10.72       14.6    0.1     0.31    0.01
19.7        14.5    0.1     0.57    0.01 
41.4        14.5    0.1     1.20    0.04
80.8        14.4    0.1     2.32    0.04
162.6       14.3    0.1     4.40    0.04 
320.4       13.8    0.1     7.04    0.04
639.7       12.8    0.1     9.04    0.04
1.2083e3    11.6    0.1     8.80    0.04
2.398e3     10.0    0.1     6.36    0.04
4.81e3      9.0     0.1     3.68    0.08
9.58e3      8.6     0.1     1.96    0.08
18.03e3     8.5     0.1     1.04    0.04
21.22e3     8.5     0.1     0.61    0.01 
66.2e3      8.4     0.1     0.31    0.01
97.64e3     8.4     0.1     0.25    0.01
