#value			#sigma
1.80000e+01		5.75847e-01
1.14000e+01		3.56320e-01
7.60000e+00		2.41628e-01
5.00000e+00		1.55242e-01
2.50000e+00		7.76209e-02
1.00000e+00		3.10483e-02
5.00000e-01		1.58114e-02
2.50000e-01		9.01388e-03
