#value			#sigma
9.00000e+00		2.87923e-01
5.70000e+00		1.78160e-01
3.80000e+00		1.20814e-01
2.50000e+00		7.76210e-02
1.25000e+00		3.88105e-02
5.00000e-01		1.55242e-02
2.50000e-01		7.90570e-03
1.25000e-01		4.50694e-03
