#value			#sigma
6.36396e+00		2.03593e-01
4.03051e+00		1.25978e-01
2.68701e+00		8.54284e-02
1.76777e+00		5.48863e-02
8.83883e-01		2.74431e-02
3.53553e-01		1.09772e-02
1.76777e-01		5.59017e-03
8.83883e-02		3.18689e-03
