#value			#sigma
7.90000e+00		2.23607e-01
5.00000e+00		2.23607e-01
3.20000e+00		2.23607e-01
2.10000e+00		2.23607e-01
1.00000e+00		2.23607e-01
3.00000e-01		2.23607e-01
1.00000e-01		2.23607e-01
0.00000e+00		2.23607e-01
